<?xml version="1.0" encoding="utf-8"?>
<!-- Generator: Adobe Illustrator 22.1.0, SVG Export Plug-In . SVG Version: 6.00 Build 0)  -->
<svg version="1.1" id="Ñëîé_1" xmlns="http://www.w3.org/2000/svg" xmlns:xlink="http://www.w3.org/1999/xlink" x="0px" y="0px"
	 viewBox="0 0 540 391" style="enable-background:new 0 0 540 391;" xml:space="preserve">
<style type="text/css">
	.st0{fill:#FFFFFF;}
	.st1{fill:url(#SVGID_1_);}
	.st2{fill:#63C1C5;}
	.st3{fill:#01898C;}
	.st4{fill:#00666A;}
	.st5{fill:#11375B;}
	.st6{fill:#F7A605;}
	.st7{fill:#FFD247;}
	.st8{fill:#FCBC00;}
	.st9{fill:#F49742;}
	.st10{fill:#F8B68F;}
	.st11{fill:#F4A086;}
	.st12{fill:#212B53;}
	.st13{fill:#043C5E;}
	.st14{fill:#FFDB71;}
	.st15{fill:url(#SVGID_2_);}
	.st16{fill:url(#SVGID_3_);}
	.st17{fill:#FAB746;}
	.st18{fill:#B0D9C8;}
	.st19{fill:url(#SVGID_4_);}
	.st20{fill:url(#SVGID_5_);}
	.st21{fill:#93CFC7;}
	.st22{fill:url(#SVGID_6_);}
	.st23{fill:#F59C42;}
	.st24{fill:#E8375E;}
</style>
<!--<rect class="st0" width="540" height="391"/>-->
<linearGradient id="SVGID_1_" gradientUnits="userSpaceOnUse" x1="159.0623" y1="109.6296" x2="451.0375" y2="109.6296" gradientTransform="matrix(1.0053 7.120000e-02 -0.1471 1.128 2.3897 -16.0378)">
	<stop  offset="0" style="stop-color:#E0F0EB"/>
	<stop  offset="1" style="stop-color:#C0E4EF"/>
</linearGradient>
<path class="st1" d="M146,125.9c-17.5,51.4,91.3,65.9,136.5,69.7c12.5,1,25.2,0.6,37.8-1.3c39.4-6,126-22.9,118.3-54.8
	c-9.9-41.1-59-16.4-59-16.4s9.7-29.9-65.1-55.3c-74.8-25.5-83.2,41.2-83.2,41.2S168,61.2,146,125.9z"/>
<g>
	<g>
		<path class="st2" d="M375.6,243.2c0,0-24.5-76.5,20.8-114.2c88.5,49.3,39.8,136.2,39.8,136.2L375.6,243.2z"/>
		<path class="st0" d="M396.3,129c0.3,0.2,0.6,0.3,0.9,0.5l5.4,94.5l42.2-41.3c0.2,0.6,0.4,1.2,0.6,1.9l-42.7,41.7l1.6,27.3
			l-1.8-0.7l-3.1-54.4l0,0l-29.5-17.4c0.1-0.6,0.2-1.3,0.3-1.9l29.1,17.1l-3.8-66.8C395.7,129.5,396,129.2,396.3,129L396.3,129z"/>
	</g>
	<g>
		<path class="st3" d="M396.5,225.6c0,0,28.6-74.8,84.5-82.1c40.5,54.4-13.3,108.7-13.3,108.7l-64.6,27.1L396.5,225.6z"/>
		<path class="st4" d="M427.2,175.4l16.1,31.7l36.3-63.4c0.4-0.1,0.9-0.1,1.3-0.2c0.2,0.2,0.3,0.4,0.5,0.6l-19.5,34l32.3-6.6
			c0.1,0.3,0.1,0.6,0.2,0.9l0.2,0.8l-33.9,6.9l-32.4,56.6l57.1-9.8c-0.3,0.7-0.7,1.3-1,2l-57.2,9.8l-23,40.2l-1.1,0.5l-0.2-1.7
			l39.4-68.7L426,176.9C426.4,176.4,426.8,175.9,427.2,175.4z"/>
	</g>
	<g>
		<path class="st5" d="M415.6,258.8c0,0,55.6-37.1,92.4-11.3c-5.3,91.5-122.1,91.3-122.1,91.3L415.6,258.8z"/>
		<g>
			<path class="st4" d="M508,247.6c0,0.4,0,0.7-0.1,1.1l-79,44.3l45.7,18.5c-0.5,0.4-1.1,0.8-1.7,1.2l-46-18.7l-30.9,17.3l1-2.6
				l60.1-33.7l10.3-36c0.6-0.1,1.3-0.2,1.9-0.2l-10.1,35l47.9-26.8C507.4,247.2,507.7,247.4,508,247.6L508,247.6z"/>
		</g>
	</g>
</g>
<g>
	<g>
		<path class="st2" d="M192,188.7c0,0,30.5-69.9-8.5-109.8c-88.3,38-50.7,124.8-50.7,124.8L192,188.7z"/>
		<path class="st0" d="M183.4,78.8c-0.3,0.1-0.6,0.3-0.9,0.4L168.3,168l-35.9-43.1c-0.3,0.6-0.5,1.1-0.8,1.7l36.3,43.6l-4.1,25.6
			l1.8-0.4l8.2-51v0l29.5-13.5c0-0.6,0-1.2-0.1-1.8l-29.2,13.4l10.1-62.7C183.9,79.3,183.7,79.1,183.4,78.8L183.4,78.8z"/>
	</g>
	<g>
		<path class="st3" d="M173.9,170.1c0,0-19.8-73.4-71.9-85.8c-43.5,47.4,2,104,2,104l58.4,31.8L173.9,170.1z"/>
		<path class="st4" d="M149.7,119.7L131.4,148l-28.2-63.4c-0.4-0.1-0.8-0.2-1.2-0.3c-0.2,0.2-0.3,0.4-0.5,0.6l15.1,34l-29.9-9.4
			c-0.1,0.3-0.2,0.6-0.3,0.8l-0.2,0.8l31.3,9.8l25.2,56.6l-53-14.8c0.3,0.7,0.5,1.3,0.8,2l53.1,14.8l17.9,40.2l1,0.5l0.4-1.6
			l-30.5-68.7l18.5-28.7C150.4,120.7,150.1,120.2,149.7,119.7z"/>
	</g>
	<g>
		<path class="st5" d="M152.6,199.6c0,0-49-40.4-86.2-19.6c-3.9,87,106.5,98,106.5,98L152.6,199.6z"/>
		<g>
			<path class="st4" d="M66.5,180c0,0.3,0,0.7,0,1l70.3,49.5l-44.9,13.1c0.5,0.4,1,0.9,1.4,1.3l45.2-13.2L166,251l-0.7-2.5
				l-53.5-37.6l-6.3-35c-0.6-0.1-1.2-0.3-1.8-0.4l6.1,34l-42.6-30C67,179.7,66.7,179.9,66.5,180L66.5,180z"/>
		</g>
	</g>
</g>
<g>
	<g>
		<g>
			<g>
				<rect x="302.6" y="314.3" class="st6" width="59.9" height="24.8"/>
				<rect x="397.9" y="314.3" class="st7" width="48.6" height="24.8"/>
				<rect x="362.5" y="314.3" class="st8" width="46.6" height="24.8"/>
			</g>
			<g>
				<path class="st9" d="M447.5,340.1H301.7v-26.8h145.8V340.1z M303.6,338.1h141.9v-22.9H303.6V338.1z"/>
			</g>
		</g>
		<g>
			<g>
				<rect x="318.9" y="289.5" class="st6" width="59.9" height="24.8"/>
				<rect x="414.2" y="289.5" class="st7" width="48.6" height="24.8"/>
				<rect x="378.7" y="289.5" class="st8" width="46.6" height="24.8"/>
			</g>
			<g>
				<path class="st9" d="M463.7,315.3H317.9v-26.8h145.8V315.3z M319.9,313.3h141.9v-22.9H319.9V313.3z"/>
			</g>
		</g>
		<g>
			<g>
				<rect x="290.7" y="264.6" class="st6" width="59.9" height="24.8"/>
				<rect x="386" y="264.6" class="st7" width="48.6" height="24.8"/>
				<rect x="350.6" y="264.6" class="st8" width="46.6" height="24.8"/>
			</g>
			<g>
				<path class="st9" d="M435.6,290.4H289.8v-26.8h145.8V290.4z M291.7,288.5h141.9v-22.9H291.7V288.5z"/>
			</g>
		</g>
		<g>
			<g>
				<rect x="301" y="239.8" class="st6" width="59.9" height="24.8"/>
				<rect x="396.3" y="239.8" class="st7" width="48.6" height="24.8"/>
				<rect x="360.9" y="239.8" class="st8" width="46.6" height="24.8"/>
			</g>
			<g>
				<path class="st9" d="M445.8,265.6H300.1v-26.8h145.8V265.6z M302,263.7h141.9v-22.9H302V263.7z"/>
			</g>
		</g>
		<g>
			<g>
				<rect x="313.8" y="215" class="st6" width="59.9" height="24.8"/>
				<rect x="409.1" y="215" class="st7" width="48.6" height="24.8"/>
				<rect x="373.7" y="215" class="st8" width="46.6" height="24.8"/>
			</g>
			<g>
				<path class="st9" d="M458.7,240.8H312.9V214h145.8V240.8z M314.8,238.9h141.9V216H314.8V238.9z"/>
			</g>
		</g>
	</g>
</g>
<g>
	<g>
		<g>
			<g>
				<rect x="166.7" y="314.3" class="st6" width="59.9" height="24.8"/>
				<rect x="82.7" y="314.3" class="st7" width="48.6" height="24.8"/>
				<rect x="120.1" y="314.3" class="st8" width="46.6" height="24.8"/>
			</g>
			<g>
				<path class="st9" d="M81.7,313.3h145.8v26.8H81.7V313.3z M225.6,315.3H83.7v22.9h141.9V315.3z"/>
			</g>
		</g>
		<g>
			<g>
				<rect x="150.4" y="289.5" class="st6" width="59.9" height="24.8"/>
				<rect x="66.4" y="289.5" class="st7" width="48.6" height="24.8"/>
				<rect x="103.9" y="289.5" class="st8" width="46.6" height="24.8"/>
			</g>
			<g>
				<path class="st9" d="M65.5,288.5h145.8v26.8H65.5V288.5z M209.3,290.4H67.4v22.9h141.9V290.4z"/>
			</g>
		</g>
		<g>
			<g>
				<rect x="178.6" y="264.6" class="st6" width="59.9" height="24.8"/>
				<rect x="94.6" y="264.6" class="st7" width="48.6" height="24.8"/>
				<rect x="132" y="264.6" class="st8" width="46.6" height="24.8"/>
			</g>
			<g>
				<path class="st9" d="M93.6,263.7h145.8v26.8H93.6V263.7z M237.5,265.6H95.6v22.9h141.9V265.6z"/>
			</g>
		</g>
		<g>
			<g>
				<rect x="168.3" y="239.8" class="st6" width="59.9" height="24.8"/>
				<rect x="84.3" y="239.8" class="st7" width="48.6" height="24.8"/>
				<rect x="121.7" y="239.8" class="st8" width="46.6" height="24.8"/>
			</g>
			<g>
				<path class="st9" d="M83.3,238.9h145.8v26.8H83.3V238.9z M227.2,240.8H85.3v22.9h141.9V240.8z"/>
			</g>
		</g>
		<g>
			<g>
				<rect x="155.5" y="215" class="st6" width="59.9" height="24.8"/>
				<rect x="71.5" y="215" class="st7" width="48.6" height="24.8"/>
				<rect x="108.9" y="215" class="st8" width="46.6" height="24.8"/>
			</g>
			<g>
				<path class="st9" d="M70.5,214h145.8v26.8H70.5V214z M214.4,216H72.4v22.9h141.9V216z"/>
			</g>
		</g>
	</g>
</g>
<g>
	<g>
		<g>
			<g>
				<rect x="154.5" y="304.6" class="st6" width="86.9" height="36.1"/>
				<rect x="293" y="304.6" class="st7" width="70.5" height="36.1"/>
				<rect x="241.5" y="304.6" class="st8" width="67.7" height="36.1"/>
			</g>
			<g>
				<path class="st9" d="M364.9,342.1H153.1v-38.9h211.8V342.1z M155.9,339.3h206.1V306H155.9V339.3z"/>
			</g>
		</g>
		<g>
			<g>
				<rect x="178.1" y="268.6" class="st6" width="86.9" height="36.1"/>
				<rect x="316.6" y="268.6" class="st7" width="70.5" height="36.1"/>
				<rect x="265.1" y="268.6" class="st8" width="67.7" height="36.1"/>
			</g>
			<g>
				<path class="st9" d="M388.5,306H176.7v-38.9h211.8V306z M179.5,303.2h206.1V270H179.5V303.2z"/>
			</g>
		</g>
		<g>
			<g>
				<rect x="137.2" y="232.5" class="st6" width="86.9" height="36.1"/>
				<rect x="275.7" y="232.5" class="st7" width="70.5" height="36.1"/>
				<rect x="224.2" y="232.5" class="st8" width="67.7" height="36.1"/>
			</g>
			<g>
				<path class="st9" d="M347.6,270H135.8v-38.9h211.8V270z M138.7,267.2h206.1v-33.2H138.7V267.2z"/>
			</g>
		</g>
		<g>
			<g>
				<rect x="152.2" y="196.5" class="st6" width="86.9" height="36.1"/>
				<rect x="290.6" y="196.5" class="st7" width="70.5" height="36.1"/>
				<rect x="239.1" y="196.5" class="st8" width="67.7" height="36.1"/>
			</g>
			<g>
				<path class="st9" d="M362.6,233.9H150.8v-38.9h211.8V233.9z M153.6,231.1h206.1v-33.2H153.6V231.1z"/>
			</g>
		</g>
		<g>
			<g>
				<rect x="170.8" y="160.4" class="st6" width="86.9" height="36.1"/>
				<rect x="309.3" y="160.4" class="st7" width="70.5" height="36.1"/>
				<rect x="257.8" y="160.4" class="st8" width="67.7" height="36.1"/>
			</g>
			<g>
				<path class="st9" d="M381.2,197.9H169.4V159h211.8V197.9z M172.2,195.1h206.1v-33.2H172.2V195.1z"/>
			</g>
		</g>
	</g>
</g>
<polygon class="st0" points="429.8,218.1 458.1,214.2 430.1,208.8 426.2,180.5 420.8,208.5 392.5,212.4 420.5,217.8 424.4,246.1 "/>
<polygon class="st0" points="314.8,275.2 351.8,270.1 315.2,263.1 310.1,226.1 303.1,262.7 266.1,267.8 302.7,274.8 307.8,311.9 "/>
<g>
	<path class="st10" d="M57.2,248c0,0-7.8,15-7.2,18.3c0.5,3.3,7.2,9,7.2,9l1.1-1.9l-3.4-7.7l4.4-12.6L57.2,248z"/>
	<polygon class="st11" points="65.6,241.6 64.9,245.8 61.1,245.8 60.7,239.3 	"/>
	<path class="st3" d="M72.6,260.5v-12.1c-4.9-3.5-8.4-3.1-8.4-3.1c-0.9-0.1-1-0.1-2.2-0.1c0,0-8.2-0.6-6.7,12.3
		c3.3,11,1.7,15.8,1.7,15.8s8.5,3.5,13.3,1C69.1,271.7,71.3,264.1,72.6,260.5C72.5,260.5,72.6,260.5,72.6,260.5z"/>
	<path class="st12" d="M59.8,243.9c0,0-3.2,1.9-3.2,4.9c0,1.9,0.7,3,1.6,4.3c1.4,2.2,1.4,5-0.2,7c0,0,0,0.1-0.1,0.1
		c-0.6,0.8-0.7,1.5-0.5,2.3c0.6,2.9,4.5,3.3,6,0.8c0.6-0.9,1.1-2,1.5-3.3c0.7-2.1,0-3.4-0.8-4.2c-0.7-0.7-0.8-1.8-0.1-2.5
		c1.2-1.3,2.4-3.1,0.9-4.8c-2.6-2.8-3.3-5.4-3.3-5.4L59.8,243.9z"/>
	<path class="st11" d="M52.6,340.5l2.3,0.4c0.5-2.8,7.6-16.3,8.2-23.2c0.6-7.7,2.4-16.4,2.4-16.4l-7.6-2.3c0,0-1.9,0,0.2,15.8
		C53.3,321.1,52,335.3,52.6,340.5z"/>
	<g>
		<g>
			<path class="st10" d="M69.1,231.4l-7.1-0.3l-1.3,4.9c0,0.1,0,0.1,0,0.2c0.1,0.1,0.2,0.1,0.3,0.2c0,0,0,0,0.1,0c0,0,0,0,0.1,0
				c1.3,0.9,1.8,2.5,1.7,4.1c0.8,0.5,1.7,0.9,2.7,1c0.7,0.1,1.3,0.2,1.6,0C69.7,239.2,69.1,231.4,69.1,231.4z"/>
		</g>
		<path class="st12" d="M59.8,242.9c1.8,0.2-1.1,0,1.8,0.2c0.1-1.5,5.1-5.6,6-6.4c2.4-2.1,2.2-4.6,2.2-4.6s-4.8-5.2-7.9-4.1
			c-2.4,0.9-3.3,2.8-3.7,4.1C58,233.3,57.2,235.3,59.8,242.9z"/>
	</g>
	<path class="st10" d="M58.2,293.3c0,0,1.8,10.8,4.3,22.4c-2.6,7,1.4,26.4,1.4,26.4c0.3-0.3,1.7,1.4,1.7,1.4s2.9-17.2,3.5-24.9
		c0.6-7.7,1.6-17.2,1.6-17.2L58.2,293.3z"/>
	<path class="st13" d="M63.7,340.9c0,0-1.1,0.9-0.9,2.1c0.2,1.2,0.5,3.9,0.5,3.9h1.1l0-2.6c0-0.2,2.4,2.6,2.8,2.6h5.9
		c0,0,0.4-1.7-3.1-2.3C66.5,344.1,63.7,340.9,63.7,340.9z"/>
	<path class="st14" d="M61.6,243.9h-1.8c-0.4,0-0.7-0.3-0.7-0.7V243c0-0.4,0.3-0.7,0.7-0.7h1.8c0.4,0,0.7,0.3,0.7,0.7v0.2
		C62.4,243.6,62.1,243.9,61.6,243.9z"/>
	<path class="st5" d="M70,271.8c0,0,1.9,10.9,1.9,16.3c0,3-1.4,15.6-1.4,15.6s-11.3,0.3-13.6,0.3c-0.3-9-3.6-14.9-3.6-22.1
		c0-5.1,4.5-9.5,4.5-9.5L70,271.8z"/>
	<path class="st7" d="M56.6,310.7"/>
	<path class="st10" d="M91.6,259.1l-0.5,0.1c-1,0.3-1.8,1.1-2.1,2.1l-0.1,0.4c0,0-4.5,1.5-9.5,2.2c-5.1-14.5-6.8-15.6-6.8-15.6
		s-3.3,1-3.3,5c0,3.3,2.2,12.7,6.4,15.7c1.2,0.8,2.7,0.9,4,0.3c6.8-3.2,11.6-6,11.6-6l5.1-2.8l-2.3-1.2
		C93.4,259,92.5,258.9,91.6,259.1z"/>
	<g>
		<path class="st11" d="M55.2,339l-0.2,2.5c0,0.5,0.1,1,0.4,1.5c0.3,0.5,0.9,1.1,1.8,1.9c-1.7,0.6-3.3-1.4-4.1-2.7
			c-0.4-0.6-0.6-1.4-0.4-2.1l0.3-1.9L55.2,339z"/>
		<path class="st12" d="M52.6,340.3c0,0-1.5,0.1-1.8,1.3c-0.3,1.1-1,3.5-1,3.5l0.8,0.7l1.2-2.3c0,0,2.5,3.4,2.9,3.5h6.5
			c0,0,0-2.1-4-2.2C53.5,344.6,52.6,340.3,52.6,340.3z"/>
	</g>
</g>
<g>
	<g>
		<g>
			<path class="st12" d="M191.5,342.5c0,0,2.1,1.9,6.8,3.1c1,0.3,2.2-0.1,2.2,1.6c-2.2,0-5.7,0-5.7,0l-4.8-0.8v0.8h-2.6
				c0,0-0.7-4.2,0.8-4.8C189.6,342.5,191.5,342.5,191.5,342.5z"/>
			<path class="st10" d="M191.2,339.4l0.3,3l0,0c-0.9,0.7-2.2,0.7-3.2,0.1l-0.2-0.1l-1.1-3H191.2z"/>
		</g>
		<g>
			<path class="st12" d="M177.2,342.5c0,0,2.1,1.9,6.8,3.1c1,0.3,2.2-0.1,2.2,1.6c-2.2,0-5.7,0-5.7,0l-4.8-0.8v0.8H173
				c0,0-0.7-4.2,0.8-4.8C175.2,342.5,177.2,342.5,177.2,342.5z"/>
			<path class="st10" d="M176.9,339.4l0.3,3l0,0c-0.9,0.7-2.2,0.7-3.2,0.1l-0.2-0.1l-1.1-3H176.9z"/>
		</g>
		<g>
			<polygon class="st11" points="182,239.8 181.2,244.7 176.8,242.8 178.3,236.8 			"/>
			<g>
				<path class="st10" d="M183.6,240.2c0.6,0,1.2-0.1,1.5-0.4c1.8-2.6-0.2-9.5-0.2-9.5l-2.8-1.2l-3.6,2.3l-0.2,4.7
					c-0.1,1.2,0.5,2.4,1.6,3.2l0,0C181,239.9,182.3,240.3,183.6,240.2z"/>
			</g>
			<path class="st12" d="M179.4,232.7c0.2-0.8,1-1.3,1.8-1.2c0.6,0.1,1.3,0.2,2,0.2c1.6,0,3.6-0.6,3.6-3.1c0-2.4-3-1.6-3-1.6
				s-6.1,0.9-8.5,2.7c-1.1,0.9,0.8,3.6,1.5,4.9c0.4,0.8,0.9,1.5,1.6,2.1l0,0L179.4,232.7z"/>
			<path class="st10" d="M177.4,234.2c0.4-0.3,1-0.3,1.5,0.1c0.5,0.4,0.6,1,0.2,1.3c-0.4,0.3-1,0.3-1.5-0.1
				C177.1,235.1,177,234.5,177.4,234.2z"/>
		</g>
		
			<linearGradient id="SVGID_2_" gradientUnits="userSpaceOnUse" x1="-298.7297" y1="264.4612" x2="-276.4353" y2="264.4612" gradientTransform="matrix(-1 0 0 1 -106.8911 0)">
			<stop  offset="0" style="stop-color:#E0F0EB"/>
			<stop  offset="1" style="stop-color:#C0E4EF"/>
		</linearGradient>
		<path class="st15" d="M181.2,244.7c0,0,6.6,10.9,10.6,36.2c-8,2.5-20.2,5.2-20.2,5.2s-7.2-27.4,5.2-43.4
			C179.4,242.8,181.2,244.7,181.2,244.7z"/>
		<path class="st12" d="M191.8,280.9c0,0,5.6,18.7,5.6,27.1s-5.6,32.3-5.6,32.3h-5.1c0,0-1.2-16.7,0.3-26c0.4-2.8,0.2-5.6-0.6-8.2
			c-2.7-9.4-5.7-22.1-5.7-22.1L191.8,280.9z"/>
		<path class="st13" d="M188,282.4c0,0,1.4,20.3-0.9,27.6c-2.3,7.3-10,30.3-10,30.3h-4.5c0,0-1.2-12.5,2.5-25.8
			c0.9-3.2,0.8-6.6-0.3-9.8c-3.5-10.4-3.2-18.5-3.2-18.5L188,282.4z"/>
		<path class="st14" d="M204.1,257.1c13.1,5,11.7,8.5,13,13c1.3,4.5,1.8,12.8-13,14.2c-14.8,1.4-14-7.3-17.4-14.2
			c-3.4-6.9,7.1-13,7.1-13S199.7,259.3,204.1,257.1z"/>
		<g>
			<path class="st10" d="M199.3,283.8c0.2,0.1,1,0.5,2.9,0.4c1.6-0.1,5-1.2,4.6,0.5c-1.4,1-3,2.4-3,2.4c-0.9,0.5-2.8,0.3-3.9,0
				l-3.3-1.5c0,0-0.5-1.7-0.5-1.7l0.7-0.4C197.5,283.7,198.4,283.8,199.3,283.8z"/>
			<path class="st10" d="M199.9,284.4c0,0,0.1,0.1,0.2,0.2c-0.2,0.1-0.4,0.2-0.6,0.4c-0.8,0.1-1.7,0.3-2.5,0.4c0-0.5,0-1.2,0-1.2
				l5.4-2c0,0,0.5,0.5-0.4,1.3C201,284.1,199.9,284.4,199.9,284.4z"/>
		</g>
		
			<linearGradient id="SVGID_3_" gradientUnits="userSpaceOnUse" x1="-304.2868" y1="269.8105" x2="-279.1714" y2="269.8105" gradientTransform="matrix(-1 0 0 1 -106.8911 0)">
			<stop  offset="0" style="stop-color:#E0F0EB"/>
			<stop  offset="1" style="stop-color:#C0E4EF"/>
		</linearGradient>
		<path class="st16" d="M182,253.5l1.5,12.1c0.3,2.3,1.3,4.5,2.9,6.3l10.9,11.6l-1.1,2.7c0,0-16.5-7.8-19.5-12.4
			c-3-4.6-4.5-18.6-4.5-18.6L182,253.5z"/>
		<g>
			<path class="st2" d="M173.1,259.9c0.7,4.5,2,11,3.9,13.8c2.8,4.2,17.3,11.3,19.2,12.2l0.9-2.4L186.3,272c-1.7-1.8-2.7-4-3-6.4
				l-0.7-5.4c0.1-0.1,0.3-0.2,0.4-0.2l0.7,5.6c0.3,2.3,1.3,4.4,2.9,6.1l10.9,11.6l0.1,0.1l-1.2,3.1l-0.2-0.1
				c-0.7-0.3-16.6-7.8-19.6-12.4c-2-3-3.3-9.8-4-14.3C172.8,259.7,173,259.8,173.1,259.9z"/>
		</g>
		<path class="st14" d="M204.1,257.1L204.1,257.1c-0.5-0.8-0.4-1.8,0.2-2.4l1.6-1.8c0,0-2.8-3.9-7-1.1c-3.2,2.1-6.2,0.7-7.4-0.1
			c-0.2-0.1-0.4,0.1-0.3,0.2h0c0.5,1.2,1.3,2.2,2.1,3.2c0.5,0.6,0.9,1.3,0.6,1.9l0,0l5.1,1.8L204.1,257.1z"/>
		<path class="st6" d="M204.6,257.3c0,0-1.8,2.2-6.1,2.2c-4.2,0-5.5-1.9-5.5-1.9l0.9-1.2c0,0,1.1,1.6,4.6,1.7
			c2.8,0.1,5.3-1.7,5.3-1.7L204.6,257.3z"/>
		<g>
			<path class="st17" d="M194.8,270.8c0,3.4,2.8,6.2,6.2,6.2c3.4,0,6.2-2.8,6.2-6.2c0-3.4-2.8-6.2-6.2-6.2
				C197.5,264.6,194.8,267.4,194.8,270.8z"/>
			<g>
				<g>
					<path class="st7" d="M200.5,275.5v-1.1c-0.8,0-1.7-0.3-2.1-0.6l0.4-0.8c0.5,0.3,1.2,0.5,1.9,0.5c1,0,1.7-0.4,1.7-1.1
						c0-0.6-0.5-1-1.6-1.4c-1.4-0.5-2.3-1-2.3-2c0-0.9,0.8-1.7,2.1-1.8v-1.2h0.9v1.1c0.8,0,1.4,0.2,1.8,0.4l-0.4,0.9
						c-0.3-0.1-0.8-0.3-1.7-0.3c-1.1,0-1.5,0.3-1.5,0.8c0,0.6,0.5,0.9,1.7,1.3c1.4,0.5,2.2,1.1,2.2,2.1c0,0.9-0.8,1.8-2.2,2v1.1
						H200.5z"/>
				</g>
				<rect x="200.5" y="266.1" class="st7" width="1" height="9.4"/>
			</g>
		</g>
	</g>
	<polygon class="st0" points="181.5,243.2 177.2,240.8 176.8,242.8 181.5,245.2 	"/>
</g>
<g>
	<g>
		<g>
			<path class="st10" d="M356,198.6l0.5,3l0,0c-0.9,0.6-2.2,0.7-3.1,0.1l-0.2-0.1l-0.7-3H356z"/>
		</g>
		<path class="st18" d="M332,129.3c2.7,8.8,11.6,22.3,11.6,22.3l-7.1-2.9l-5-11.5C331.5,137.1,329.3,120.5,332,129.3z"/>
		<path class="st12" d="M351.2,164.6l5.6,34.3h-4.9c0,0-11.1-30.9-12.3-40c0-5.1,11.2,0,11.2,0L351.2,164.6z"/>
		<g>
			<polygon class="st11" points="332.7,115.4 330.9,120.2 326.9,117.3 329.6,111.6 			"/>
			<g>
				<path class="st10" d="M334.2,116.2c0.6,0.1,1.2,0.1,1.6,0c2.3-2.2,1.8-9.6,1.8-9.6l-2.6-1.8l-4.1,1.5l-1.2,4.6
					c-0.3,1.2,0,2.6,0.9,3.6l0,0C331.6,115.3,332.9,115.9,334.2,116.2z"/>
			</g>
			<path class="st12" d="M331.6,107.8c0.4-0.7,1.2-1.1,2-0.8c0.6,0.2,1.2,0.4,1.9,0.6c1.6,0.3,4.6,0.3,5.1-2.1
				c0.5-2.4-2.7-2.2-2.7-2.2l-4.2,0.3c-1.2,0.1-2.5-0.2-3.6-0.7c-1-0.4-1.9,0.5-2.1,1.1c-0.5,1.4,0,3.7,0.4,5.2
				c0.2,0.9,0.6,1.7,1.2,2.4l0,0L331.6,107.8z"/>
			<path class="st10" d="M329.2,108.8c0.4-0.2,1.1,0,1.5,0.4c0.4,0.5,0.4,1.1-0.1,1.3c-0.4,0.2-1.1,0-1.5-0.4
				C328.8,109.7,328.8,109.1,329.2,108.8z"/>
		</g>
		<g>
			<path class="st12" d="M356.6,201.3c0,0,0,3.2,6.4,5.1c1.3,0.4,0.9,0.8,1.1,1.3c-2.1,0-7.4,0-7.4,0l-2.9-3.2l-0.9,0.8l-2.1-2
				c0,0,0.4-3,1.9-3C354.2,200.7,356.6,201.3,356.6,201.3z"/>
			<path class="st10" d="M338.4,197.7l-1.2,2.8l0,0c-1.1,0.3-2.3,0-3-0.9l-0.1-0.2l1-2.8L338.4,197.7z"/>
		</g>
		<path class="st4" d="M331.8,118.8c0,0,0.5-0.8-4-3.1c-6.8,6.8-9.1,33-9.1,33s16,0,17.8,0C337.1,133.7,331.8,118.8,331.8,118.8z"/>
		<path class="st10" d="M349.4,147.9c0.1-0.3-0.1-0.7-0.4-0.9l-2.9-1.7c-0.7-0.4-1.6-0.6-2.4-0.4l-3.2,0.1l-0.4,0.5l-0.7,2.8
			c0.6-0.2,1-0.2,1-0.2l2,0.1c0,0,3.8,3.5,5.7,0.5c0.1,3.2,1,3,1,3L349.4,147.9z"/>
		<path class="st13" d="M318.7,148.7l-0.3,2.2c0,0,0,0.1,0,0.1c-0.5,4.2,2.3,8.1,6.4,9.3c0,0,8.1,2.7,18.4,3.3
			c-6.7,8.6-8.6,32.9-8.6,32.9l4.3,1.6l16.7-39.9c1.1-2.5-0.4-5.4-3.1-6l-16-3.4H318.7z"/>
		<path class="st4" d="M329.8,127.4c0,0-3.3,3-5.3,6.2c-0.5,0.9-0.5,2,0.2,2.8c3.7,4.3,17,8.4,17,8.4l-0.9,4.8
			c0,0-18.8-3.7-25.4-10.4c-6.8-6.9,10.8-21.2,10.8-21.2"/>
		<g>
			<path class="st3" d="M324.8,133.7c-0.5,0.8-0.4,1.8,0.2,2.4c1.7,2,6.2,4,10.2,5.6c0,0.2,0,0.3,0,0.5c-4.1-1.6-8.7-3.6-10.6-5.8
				c-0.8-0.9-0.8-2.1-0.2-3.1c2-3.1,5.3-6.2,5.3-6.2l0.4,0.4C330,127.6,326.7,130.6,324.8,133.7z"/>
			<path class="st3" d="M319.3,141.8c7.2,3.9,17.8,6.7,21.6,7.5c0,0.2-0.1,0.4-0.1,0.5c-3.6-0.7-14.1-3.4-21.5-7.4
				C319.3,142.2,319.3,142,319.3,141.8z"/>
		</g>
		<g>
			<polygon class="st3" points="356.4,153.8 362,133.9 361,133.6 355.7,152.6 339.7,149.8 339.5,150.8 			"/>
		</g>
	</g>
	<path class="st12" d="M337.5,199.8c0,0-0.3,3.2,6.2,5.1c1.3,0.4,0.9,0.8,1.1,1.3c-2.1,0-7.4,0-7.4,0l-2.9-3.2l-0.9,0.8l-2.1-2
		c0,0,1-3,2.6-3C335.4,199.2,337.5,199.8,337.5,199.8z"/>
</g>
<g>
	<g>
		<path class="st12" d="M219.6,157.5c0,0,0.8,1.1,4.7,2.1c0.9,0.2,1.8,0.4,1.8,1.8c-1.8,0-3.8,0-3.8,0l-3.9-0.7v0.7h-2.1
			c0,0-0.6-3.4,0.6-3.9C218,157.5,219.6,157.5,219.6,157.5z"/>
		<path class="st10" d="M219.8,155l-0.2,2.5l0,0c-0.8,0.5-1.8,0.6-2.6,0.1l-0.1-0.1V155H219.8z"/>
	</g>
	<g>
		<path class="st12" d="M200,157.9c0,0,0.8,1.1,4.7,2.1c0.9,0.2,1.8,0.4,1.8,1.8c-1.8,0-3.8,0-3.8,0l-3.9-0.7v0.7h-2.1
			c0,0-0.6-3.4,0.6-3.9C198.4,157.9,200,157.9,200,157.9z"/>
		<path class="st10" d="M200.2,155.5l-0.2,2.5l0,0c-0.8,0.5-1.8,0.6-2.6,0.1l-0.1-0.1v-2.5H200.2z"/>
	</g>
	<path class="st12" d="M221.3,94.1l-1,62.2h-4.5c0,0-6.9-50.2-5.4-62.2C211.9,82.1,221.3,94.1,221.3,94.1z"/>
	<path class="st5" d="M216.5,94.1c0,0-1.6,19.1-5.2,29.7c-3.6,10.6-10.2,32.5-10.2,32.5h-4.7c0,0,7.8-45.9,6-62.3l0,0H216.5z"/>
	
		<linearGradient id="SVGID_4_" gradientUnits="userSpaceOnUse" x1="-224.8556" y1="74.6458" x2="-208.085" y2="74.6458" gradientTransform="matrix(-1 0 0 1 10.0512 0)">
		<stop  offset="0" style="stop-color:#E0F0EB"/>
		<stop  offset="1" style="stop-color:#C0E4EF"/>
	</linearGradient>
	<path class="st19" d="M220.6,62.4c0,0,5.6,13,7,13c1.1,0-0.4-10.6-0.4-10.6h4.7c0,0,5.9,18.2,1.2,21.6c-4.7,3.3-15-9.4-15-9.4
		L220.6,62.4z"/>
	<path class="st10" d="M204,95.7l1.7,4.2c0.8,1.6,3.8,1.7,5.8,1.2c0.3-0.1,0.4-0.5,0.2-0.7c-1.1-1.2-3.9-4.3-4.9-5L204,95.7z"/>
	
		<linearGradient id="SVGID_5_" gradientUnits="userSpaceOnUse" x1="-211.0039" y1="76.8547" x2="-193.9023" y2="76.8547" gradientTransform="matrix(-1 0 0 1 10.0512 0)">
		<stop  offset="0" style="stop-color:#E0F0EB"/>
		<stop  offset="1" style="stop-color:#C0E4EF"/>
	</linearGradient>
	<path class="st20" d="M218.1,59.7c0,0,2.9,2,2.9,4.2c0,2.3,0,30.1,0,30.1H204V65.9c0,0,0.3-6.3,6.5-6.3
		C216.5,59.6,218.1,59.7,218.1,59.7z"/>
	<g>
		<polygon class="st21" points="220.8,94.1 220.8,67 221.3,67 221.3,94.1 		"/>
	</g>
	<path class="st11" d="M211.9,53v7.1c0,0,1.2,1.6,3.3,1.6c2.1,0,2.1-1.5,2.1-1.5v-4.6l-3.2-0.8L211.9,53z"/>
	<path class="st10" d="M217.7,57c0.7,0,1.3-0.1,1.6-0.4c1.9-3-0.3-11.2-0.3-11.2l-6.9,1.2l-0.2,5.5c-0.1,1.5,0.6,2.9,1.7,3.8l0,0
		C214.8,56.6,216.2,57,217.7,57z"/>
	<path class="st12" d="M215.3,46.8c0,0,2.3,0.4,4.7,0c2.4-0.4,0.9-3.1,0.9-3.1s-1.8,0.8-4.9,0.3c-2.1-0.3-2.7-0.7-4.1,0
		c-1.9,1-1.4,4.3-1.4,4.3l1,7.1h0.4c0,0,0.1-4.2,0.1-5.7c0.4-0.7,0.8-0.7,1.2-0.5c0.4,0.2,0.6,0.6,0.6,1v7.4c0,0,4.7,2,5.9,1.7
		c1.2-0.4,0.4-5.8,0.4-5.8s-1.4-0.6-2.4,0.6c-1.1,1.2-2.3,0-2.3,0L215.3,46.8z"/>
	<path class="st10" d="M231,64.8l-0.2-0.9c-0.4-2-2.3-4.5-4.2-5.1l-2,0l0.6,4.2l2.8,1.8H231z"/>
	<path class="st10" d="M212.5,49.1c0.5,0,1,0.5,1.1,1.1c0.1,0.7-0.3,1.2-0.8,1.3c-0.5,0-1-0.5-1.1-1.1
		C211.7,49.8,212,49.2,212.5,49.1z"/>
	<path class="st10" d="M226.1,62.5l3.9,2.2c0,0-2.4,0-2.5,0l-4.1-3.4c0,0,0.3-0.6,1.2-0.1C225.6,61.8,226.1,62.5,226.1,62.5z"/>
	
		<linearGradient id="SVGID_6_" gradientUnits="userSpaceOnUse" x1="-201.4663" y1="79.0091" x2="-186.0544" y2="79.0091" gradientTransform="matrix(-1 0 0 1 10.0512 0)">
		<stop  offset="0" style="stop-color:#C0E4EF"/>
		<stop  offset="1" style="stop-color:#E0F0EB"/>
	</linearGradient>
	<path class="st22" d="M205.8,61.5c0,0-9.7,10.7-9.7,17.2c0,6.4,7.8,17.8,7.8,17.8l3.9-1.1c0,0-3.5-14-3.5-17.8
		c0-3.7,7.2-9.2,7.2-9.2"/>
	<g>
		<path class="st21" d="M204.6,77.6c0,3.2,2.8,15,3.5,17.7c-0.2,0.1-0.3,0.1-0.6,0.1c-0.8-3.4-3.5-14.7-3.5-17.9
			c0-3.8,7-9.2,7.3-9.4l0.3,0.5C211.6,68.6,204.6,74,204.6,77.6z"/>
	</g>
	<g>
		<path class="st23" d="M223.5,55.5c0,0-0.8,4.2,1.8,7.5c0.2,0.2,0.4,0.4,0.7,0.4c0.6,0.1,1-0.1,1.3-0.2c0.5-0.1,0.7-0.4,0.8-0.6
			c0.1-0.2,0.1-0.4-0.1-0.6c-0.5-0.8-2.1-3.4-1.4-5.8C225.3,55.1,223.5,55.5,223.5,55.5z"/>
		<path class="st17" d="M227.7,63c0.3-0.1,0.4-0.2,0.5-0.4c0.1-0.2,0.1-0.4-0.1-0.6c-0.5-0.8-2.1-3.4-1.4-5.8
			c-0.5-0.4-1-0.6-1.5-0.7C225.1,58.1,225.6,59.9,227.7,63z"/>
		<g>
			<g>
				<path class="st23" d="M225.8,58.9c0.1,0.6,0.4,1,0.6,1c0.2,0,0.3-0.6,0.2-1.2c-0.1-0.6-0.4-1-0.6-1
					C225.8,57.8,225.7,58.3,225.8,58.9z"/>
				<polygon class="st23" points="226,57.8 226.2,57.7 226.2,57.9 226,57.9 				"/>
				<polygon class="st24" points="226.4,59.9 226.7,59.9 226.3,59.8 				"/>
			</g>
			<path class="st7" d="M226,58.9c0.1,0.6,0.4,1,0.6,1c0.2,0,0.3-0.6,0.2-1.2c-0.1-0.6-0.4-1-0.6-1C226,57.8,225.9,58.3,226,58.9z"
				/>
		</g>
		<path class="st7" d="M222.5,52H222c-0.9,0-1.6,0.7-1.6,1.5v1.2c0,0.8,0.7,1.5,1.6,1.5h0.5V52z"/>
		<path class="st12" d="M236.5,53.2c0,3.3-0.8,6-1.7,6c-0.9,0-1.7-2.7-1.7-6c0-3.3,0.8-6,1.7-6C235.7,47.2,236.5,49.9,236.5,53.2z"
			/>
		<polygon class="st0" points="233,51 234.4,51.9 234.4,53.8 233,55 232.5,52.5 		"/>
		<path class="st6" d="M233.1,53.2c0-2.8,0.5-5.1,1.3-5.8c0,0,0,0,0,0c-5.6,4-12.2,4.6-12.2,4.6v4.2c0,0,8.9-0.5,12.2,2.7
			c0,0,0,0,0,0C233.6,58.3,233.1,56,233.1,53.2z"/>
		<path class="st7" d="M234.5,52.8c0,0.5-0.1,1-0.2,1c-0.1,0-0.2-0.4-0.2-1s0.1-1,0.2-1C234.5,51.9,234.5,52.3,234.5,52.8z"/>
	</g>
	<path class="st10" d="M228.8,61.7c-0.1,0.1-0.6,0.4-2.2,0.4c-1.1,0-1.6-1.4-1.8-2.1c-0.1-0.3-0.1-0.6,0.2-0.8l1.8-0.3L228.8,61.7z"
		/>
</g>
<g>
	<g>
		<path class="st12" d="M395,344.4c0,0-1.7,1.6-5.6,2.6c-0.9,0.2-1.8-0.1-1.8,1.3c1.8,0,4.7,0,4.7,0l3.9-0.7v0.7h2.1
			c0,0,0.6-3.4-0.6-3.9C396.6,344.4,395,344.4,395,344.4z"/>
		<path class="st10" d="M395.2,341.9l-0.2,2.5l0,0c0.8,0.5,1.8,0.6,2.6,0.1l0.1-0.1l0.9-2.5H395.2z"/>
	</g>
	<g>
		<path class="st12" d="M413.7,344.4c0,0-1.7,1.6-5.6,2.6c-0.9,0.2-1.8-0.1-1.8,1.3c1.8,0,4.7,0,4.7,0l3.9-0.7v0.7h2.1
			c0,0,0.6-3.4-0.6-3.9C415.3,344.4,413.7,344.4,413.7,344.4z"/>
		<path class="st10" d="M414,341.9l-0.2,2.5l0,0c0.8,0.5,1.8,0.6,2.6,0.1l0.1-0.1l0.9-2.5H414z"/>
	</g>
	<polygon class="st12" points="402.5,280 397.1,280 395.2,342.5 398.8,342.5 409.5,291.6 	"/>
	<polygon class="st13" points="400.7,280 413.3,342.5 417.3,342.5 415.7,280 	"/>
	<g>
		<g>
			<path class="st12" d="M411.7,293.7l1.2-0.1c0,0,0-0.9,0.6-1.5c0.5-0.5,1.2-0.7,2.2-0.7c1.1,0,1.9,0.2,2.4,0.7
				c0.5,0.5,0.4,1,0.4,1l1.2,0.1c0-0.1,0-1-0.8-1.9c-0.7-0.7-1.8-1.1-3.3-1.1c-1.4,0-2.4,0.4-3.1,1.1
				C411.6,292.4,411.7,293.7,411.7,293.7z"/>
		</g>
		<g>
			
				<rect x="406.5" y="295.1" transform="matrix(-1 -1.224647e-16 1.224647e-16 -1 831.084 601.8616)" class="st12" width="18.1" height="11.6"/>
			<g>
				<g>
					<path class="st14" d="M414.9,303c0,0.7,0.3,0.8,0.8,0.8c0.4,0,0.8-0.1,0.8-0.8v-2.5c5.2-0.5,8.2-1.5,8.2-1.5v0.3v8.9
						c0,0.8-0.3,1.5-0.8,1.5h-16.5c-0.5,0-0.8-0.7-0.8-1.5v-9.1c3.8,0.9,4,0.9,8.4,1.4V303z"/>
					<path class="st6" d="M410.2,299.8c0.8,1.6,1.7,3.2,2.8,4.7c1.3,1.8,2.8,3.5,4.3,5.1h-10c-0.5,0-0.8-0.7-0.8-1.5v-9.1
						C408.2,299.4,409.2,299.7,410.2,299.8z"/>
					<path class="st2" d="M407.3,292.6h16.5c0.5,0,0.8,0.7,0.8,1.5v4.4c-2.9,1-5.7,1.3-8.2,1.4v-0.6c0-0.7-0.3-0.8-0.8-0.8
						c-0.4,0-0.8,0.1-0.8,0.8v0.6c-4.9-0.1-8.4-1.4-8.4-1.4v-4.4C406.5,293.3,406.8,292.6,407.3,292.6z"/>
				</g>
			</g>
		</g>
		<g>
			<path class="st0" d="M414.6,301.9v-0.8c0-0.2,0.1-0.3,0.3-0.3h1.3c0.2,0,0.3,0.1,0.3,0.3v0.8c0,0.2-0.1,0.3-0.3,0.3H415
				C414.8,302.2,414.6,302.1,414.6,301.9z M415,300.9c-0.1,0-0.2,0.1-0.2,0.2v0.8c0,0.1,0.1,0.2,0.2,0.2h1.3c0.1,0,0.2-0.1,0.2-0.2
				v-0.8c0-0.1-0.1-0.2-0.2-0.2H415z"/>
			<path class="st0" d="M415.5,301.4C415.5,301.5,415.6,301.5,415.5,301.4L415.5,301.4c0.1,0.1,0.2,0,0.2,0v-1.1c0,0,0-0.1-0.1-0.1
				l0,0c0,0-0.1,0-0.1,0.1V301.4z"/>
		</g>
	</g>
	<g>
		<path class="st10" d="M371.1,270.7c-0.2,0.1-0.9,0.6-2.5,0.7c-1.5,0.1-4.7-0.5-4.1,1c1.4,0.8,3,1.9,3,1.9c0.9,0.4,2.5,0,3.5-0.5
			l2.8-1.7c0,0,0.2-1.6,0.3-1.6l-0.6-0.3C372.7,270.4,371.9,270.6,371.1,270.7z"/>
		<path class="st10" d="M370.6,271.3c0,0,0,0.1-0.2,0.2c0.2,0.1,0.4,0.2,0.6,0.3c0.8,0,1.6,0.1,2.4,0.1c0-0.5-0.1-1.1-0.1-1.1
			l-5.1-1.2c0,0-0.4,0.5,0.5,1.1C369.6,271.2,370.6,271.3,370.6,271.3z"/>
	</g>
	<path class="st10" d="M414.8,287.2l-1.7,3.7c0,0,0.4,2.1,1.1,2.9c0.2,0.2,0.6,0.3,0.9,0.2c0.7-0.3,2.3-1,2.6-1.4
		c0.1-0.2,0.2-0.4,0.1-0.7l-0.5-1.6l-0.1-3.8L414.8,287.2z"/>
	<g>
		<polygon class="st11" points="404.9,242.4 404.8,247.4 409.3,247.1 409.5,239.4 		"/>
		<g>
			<path class="st10" d="M404.1,242.8c-0.6,0-1.2-0.1-1.5-0.4c-1.8-2.6,0.2-9.7,0.2-9.7l2.9-1.2l3.6,2.3l0.2,4.7
				c0.1,1.3-0.5,2.5-1.6,3.3l0,0C406.8,242.5,405.5,242.9,404.1,242.8z"/>
		</g>
		<path class="st12" d="M408.4,236.6c-0.2-0.8,0.3-2.6-0.5-2.5c-0.6,0.1-2.6,0.2-3.3,0.2c-1.6,0-4.5-0.6-4.5-3.1
			c0-1.2,0.8-1.9,1.5-2.2c0.7-0.3,1.6,0.6,2.3,0.8c1.8,0.6,5.5,1.1,6.4,0.9c1.1-0.2,2.2,0.9,2.3,1.5c0.2,1.4-0.8,3.6-1.5,5
			c-0.4,0.8-1,1.5-1.6,2.1l0,0L408.4,236.6z"/>
		<path class="st10" d="M410.4,236.7c-0.4-0.3-1-0.3-1.5,0.1c-0.5,0.4-0.6,1-0.2,1.3c0.4,0.3,1,0.3,1.5-0.1
			C410.7,237.6,410.8,237.1,410.4,236.7z"/>
	</g>
	<path class="st3" d="M407.2,245.8c2,0,3.8,0.4,5.2,1.1c3.6,1.6,6.1,4.9,7,8.7c1.4,6,3.8,20.3-1.7,32.8c-1.6,0.1-3.6,0-3.6,0
		l-0.6-29.5L414,280h-16.9v-13.6c0,0-0.4,3.1-4.5,5.9c-4.1,2.8-19.4,1-19.4,1V270c0,0,13.4-2.8,15.6-4.5c2.2-1.7,6.9-13.6,6.9-13.6
		c1.5-2.9,4.2-5.1,7.4-5.7C404.2,245.9,405.6,245.8,407.2,245.8z"/>
	<g>
		<polygon class="st4" points="413.7,280.1 413.3,259.8 413.8,259.8 414.2,280.1 		"/>
	</g>
	<polygon class="st0" points="409.3,244.4 409.6,246 404.5,246 404.8,244.4 	"/>
</g>
</svg>
